{
  "content": [
    {
      "id": 1,
      "firstName": "Linoel",
      "lastName": "Tasseler",
      "address": "891 Eagan Place",
      "city": "Asímion",
      "telephone": null,
      "homePage": null,
      "email": null,
      "birthDay": "12/20/1991"
    },
    {
      "id": 2,
      "firstName": "Dani",
      "lastName": "Coupar",
      "address": "0036 Drewry Avenue",
      "city": "Jingxin",
      "telephone": null,
      "homePage": null,
      "email": null,
      "birthDay": "06/19/1987"
    },
    {
      "id": 3,
      "firstName": "Gilbertine",
      "lastName": "Rewan",
      "address": "02226 Dovetail Hill",
      "city": "Kachia",
      "telephone": null,
      "homePage": null,
      "email": null,
      "birthDay": "06/21/1986"
    },
    {
      "id": 4,
      "firstName": "Elsa",
      "lastName": "Bellenger",
      "address": "96085 Gulseth Center",
      "city": "Krasnolesnyy",
      "telephone": null,
      "homePage": null,
      "email": null,
      "birthDay": "10/09/1991"
    },
    {
      "id": 5,
      "firstName": "Grete",
      "lastName": "Wipper",
      "address": "69795 Lawn Terrace",
      "city": "Izyum",
      "telephone": "709-856-6493",
      "homePage": "https://moonfruit.com/ligula.png?nunc=nisl&proin=duis&at=ac&turpis=nibh&a=fusce&pede=lacus&posuere=purus&nonummy=aliquet&integer=at&non=feugiat&velit=non&donec=pretium&diam=quis&neque=lectus&vestibulum=suspendisse&eget=potenti&vulputate=in&ut=eleifend&ultrices=quam&vel=a&augue=odio&vestibulum=in&ante=hac&ipsum=habitasse&primis=platea&in=dictumst&faucibus=maecenas&orci=ut&luctus=massa&et=quis&ultrices=augue&posuere=luctus&cubilia=tincidunt&curae=nulla&donec=mollis&pharetra=molestie&magna=lorem&vestibulum=quisque",
      "email": "gwipper4@admin.ch",
      "birthDay": "12/31/2000"
    },
    {
      "id": 6,
      "firstName": "Franky",
      "lastName": "Pibsworth",
      "address": "87372 Bonner Avenue",
      "city": "Souto da Casa",
      "telephone": "773-714-6652",
      "homePage": "http://skype.com/commodo.aspx?in=magna&congue=vulputate&etiam=luctus&justo=cum&etiam=sociis&pretium=natoque&iaculis=penatibus&justo=et&in=magnis&hac=dis&habitasse=parturient&platea=montes&dictumst=nascetur&etiam=ridiculus&faucibus=mus&cursus=vivamus&urna=vestibulum&ut=sagittis&tellus=sapien&nulla=cum&ut=sociis&erat=natoque&id=penatibus&mauris=et&vulputate=magnis&elementum=dis&nullam=parturient&varius=montes&nulla=nascetur&facilisi=ridiculus&cras=mus&non=etiam&velit=vel&nec=augue&nisi=vestibulum&vulputate=rutrum&nonummy=rutrum&maecenas=neque&tincidunt=aenean&lacus=auctor&at=gravida&velit=sem&vivamus=praesent&vel=id&nulla=massa&eget=id&eros=nisl&elementum=venenatis&pellentesque=lacinia",
      "email": "fpibsworth5@fastcompany.com",
      "birthDay": "08/09/2000"
    },
    {
      "id": 7,
      "firstName": "Hershel",
      "lastName": "Waterstone",
      "address": "25135 Springs Place",
      "city": "Troitsk",
      "telephone": null,
      "homePage": null,
      "email": null,
      "birthDay": "10/08/1993"
    },
    {
      "id": 8,
      "firstName": "Rowland",
      "lastName": "Older",
      "address": "3 Jenifer Circle",
      "city": "Shuidong",
      "telephone": null,
      "homePage": null,
      "email": null,
      "birthDay": "05/28/1988"
    },
    {
      "id": 9,
      "firstName": "Enrico",
      "lastName": "McAuley",
      "address": "19266 Lunder Point",
      "city": "Barotac Nuevo",
      "telephone": "831-579-5267",
      "homePage": "http://cargocollective.com/elementum/nullam/varius/nulla.json?nibh=eget&in=elit&lectus=sodales&pellentesque=scelerisque&at=mauris&nulla=sit&suspendisse=amet&potenti=eros&cras=suspendisse&in=accumsan&purus=tortor&eu=quis&magna=turpis&vulputate=sed&luctus=ante&cum=vivamus&sociis=tortor&natoque=duis&penatibus=mattis&et=egestas&magnis=metus&dis=aenean&parturient=fermentum&montes=donec&nascetur=ut&ridiculus=mauris&mus=eget&vivamus=massa&vestibulum=tempor&sagittis=convallis&sapien=nulla&cum=neque&sociis=libero&natoque=convallis&penatibus=eget&et=eleifend&magnis=luctus&dis=ultricies",
      "email": "emcauley8@over-blog.com",
      "birthDay": "06/26/1993"
    },
    {
      "id": 10,
      "firstName": "Nevin",
      "lastName": "Barta",
      "address": "46363 New Castle Alley",
      "city": "Ludwin",
      "telephone": null,
      "homePage": null,
      "email": null,
      "birthDay": "03/19/1992"
    }
  ],
  "last": false,
  "totalPages": 10,
  "totalElements": 100,
  "sort": null,
  "first": true,
  "numberOfElements": 10,
  "size": 10,
  "number": 0
}
